<?xml version="1.0" encoding="utf-8"?>
<!-- Generator: Adobe Illustrator 16.0.0, SVG Export Plug-In . SVG Version: 6.00 Build 0)  -->
<!DOCTYPE svg PUBLIC "-//W3C//DTD SVG 1.1//EN" "http://www.w3.org/Graphics/SVG/1.1/DTD/svg11.dtd">
<svg version="1.1" id="Layer_1" xmlns="http://www.w3.org/2000/svg" xmlns:xlink="http://www.w3.org/1999/xlink" x="0px" y="0px"
	 width="42px" height="48px" viewBox="0 0 42 48" enable-background="new 0 0 42 48" xml:space="preserve">
<g>
	<defs>
		<rect id="SVGID_1_" width="42" height="48"/>
	</defs>
	<clipPath id="SVGID_2_">
		<use xlink:href="#SVGID_1_"  overflow="visible"/>
	</clipPath>
	<path clip-path="url(#SVGID_2_)" fill="#303033" d="M38,6h-9V4c0-2.2-1.8-4-4-4h-8c-2.2,0-4,1.8-4,4v2H4c-2.2,0-4,1.8-4,4v4h1
		c2.6,0,3,1.9,3,2.1l3.5,27C7.8,45.8,10.3,48,13,48h16c2.7,0,5.1-2.2,5.5-4.8l3.5-27c0-0.1,0.4-2.1,3-2.2h1v-4C42,7.8,40.2,6,38,6
		 M15,4c0-1.1,0.9-2,2-2h8c1.1,0,2,0.9,2,2v2h-2V5.5C25,4.7,24.3,4,23.5,4h-5C17.7,4,17,4.7,17,5.5V6h-2V4z M2,10c0-1.1,0.9-2,2-2
		h34c1.1,0,2,0.9,2,2v2H2V10z M36,15.9l-3.5,27C32.3,44.6,30.7,46,29,46H13c-1.7,0-3.3-1.4-3.5-3.1L6,15.8c-0.1-0.5-0.3-1.2-0.8-1.8
		h31.6C36.3,14.7,36.1,15.4,36,15.9"/>
	<rect x="19" y="21" clip-path="url(#SVGID_2_)" fill="#7D50F9" width="4" height="18"/>
	<polygon clip-path="url(#SVGID_2_)" fill="#7D50F9" points="27,21 31,21 29,39 27,39 	"/>
	<polygon clip-path="url(#SVGID_2_)" fill="#7D50F9" points="11,21 15,21 15,39 13,39 	"/>
</g>
</svg>
