<?xml version="1.0" encoding="utf-8"?>
<!-- Generator: Adobe Illustrator 17.0.0, SVG Export Plug-In . SVG Version: 6.00 Build 0)  -->
<!DOCTYPE svg PUBLIC "-//W3C//DTD SVG 1.1//EN" "http://www.w3.org/Graphics/SVG/1.1/DTD/svg11.dtd">
<svg version="1.1" id="Layer_1" xmlns="http://www.w3.org/2000/svg" xmlns:xlink="http://www.w3.org/1999/xlink" x="0px" y="0px"
	 width="510.236px" height="510.236px" viewBox="0 0 510.236 510.236" enable-background="new 0 0 510.236 510.236"
	 xml:space="preserve">
<g>
	<rect x="98.517" y="54.668" fill="#FFFFFF" width="8.827" height="400.615"/>
	<rect x="134.393" y="54.668" fill="#FFFFFF" width="17.653" height="400.615"/>
	<rect x="179.095" y="54.668" fill="#FFFFFF" width="8.827" height="400.615"/>
	<rect x="26.765" y="54.668" fill="#FFFFFF" width="9.111" height="400.615"/>
	<rect x="53.814" y="54.668" fill="#FFFFFF" width="8.827" height="400.615"/>
	<rect x="0" y="54.668" fill="#FFFFFF" width="17.938" height="400.9"/>
	<rect x="214.971" y="54.668" fill="#FFFFFF" width="8.827" height="400.615"/>
	<rect x="197.033" y="54.668" fill="#FFFFFF" width="8.827" height="400.615"/>
	<rect x="438.769" y="54.668" fill="#FFFFFF" width="26.765" height="400.615"/>
	<rect x="250.562" y="54.668" fill="#FFFFFF" width="17.938" height="400.615"/>
	<rect x="492.298" y="54.668" fill="#FFFFFF" width="17.938" height="400.9"/>
	<rect x="393.782" y="54.668" fill="#FFFFFF" width="17.938" height="400.615"/>
	<rect x="474.36" y="54.668" fill="#FFFFFF" width="9.111" height="400.615"/>
	<rect x="295.265" y="54.668" fill="#FFFFFF" width="17.938" height="400.615"/>
	<rect x="331.141" y="54.668" fill="#FFFFFF" width="17.938" height="400.615"/>
	<rect x="367.017" y="54.668" fill="#FFFFFF" width="17.938" height="400.615"/>
</g>
</svg>
