<?xml version="1.0" encoding="utf-8"?>
<!-- Generator: Adobe Illustrator 16.0.0, SVG Export Plug-In . SVG Version: 6.00 Build 0)  -->
<!DOCTYPE svg PUBLIC "-//W3C//DTD SVG 1.1//EN" "http://www.w3.org/Graphics/SVG/1.1/DTD/svg11.dtd">
<svg version="1.1" id="Layer_1" xmlns="http://www.w3.org/2000/svg" xmlns:xlink="http://www.w3.org/1999/xlink" x="0px" y="0px"
	 width="31.973px" height="44.896px" viewBox="0 0 31.973 44.896" enable-background="new 0 0 31.973 44.896" xml:space="preserve">
<g>
	<defs>
		<rect id="SVGID_1_" y="0" width="31.972" height="44.895"/>
	</defs>
	<clipPath id="SVGID_2_">
		<use xlink:href="#SVGID_1_"  overflow="visible"/>
	</clipPath>
</g>
<g>
	<defs>
		<rect id="SVGID_3_" y="0" width="31.972" height="44.895"/>
	</defs>
	<clipPath id="SVGID_4_">
		<use xlink:href="#SVGID_3_"  overflow="visible"/>
	</clipPath>
	<path clip-path="url(#SVGID_4_)" fill="#FFFFFF" d="M24.617,15.85c0,4.858-3.938,8.797-8.797,8.797s-8.797-3.939-8.797-8.797
		s3.939-8.797,8.797-8.797S24.617,10.992,24.617,15.85"/>
	<path clip-path="url(#SVGID_4_)" fill="#FFFFFF" d="M15.985,9.418c-3.354,0-6.073,2.72-6.073,6.074
		c0,3.353,2.719,6.073,6.073,6.073c3.355,0,6.073-2.72,6.073-6.073C22.059,12.138,19.341,9.418,15.985,9.418"/>
	<path clip-path="url(#SVGID_4_)" fill="#DD0031" d="M29.841,23.437c1.29-2.821,2.131-5.432,2.131-7.451
		C31.972,7.157,24.815,0,15.985,0C7.158,0,0,7.157,0,15.985c0,5.409,5.998,15.037,10.647,21.688
		C19.001,36.091,26.005,30.731,29.841,23.437 M15.985,21.565c-3.354,0-6.073-2.72-6.073-6.073c0-3.354,2.719-6.074,6.073-6.074
		c3.355,0,6.073,2.72,6.073,6.074C22.059,18.845,19.341,21.565,15.985,21.565"/>
	<path clip-path="url(#SVGID_4_)" fill="#DD0031" d="M10.646,37.673c2.939,4.205,5.339,7.223,5.339,7.223s9.505-11.943,13.855-21.46
		C26.005,30.73,19.001,36.092,10.646,37.673"/>
</g>
</svg>
