<?xml version="1.0" encoding="utf-8"?>
<!-- Generator: Adobe Illustrator 16.0.0, SVG Export Plug-In . SVG Version: 6.00 Build 0)  -->
<!DOCTYPE svg PUBLIC "-//W3C//DTD SVG 1.1//EN" "http://www.w3.org/Graphics/SVG/1.1/DTD/svg11.dtd">
<svg version="1.1" id="Layer_1" xmlns="http://www.w3.org/2000/svg" xmlns:xlink="http://www.w3.org/1999/xlink" x="0px" y="0px"
	 width="48.1px" height="38px" viewBox="0 0 48.1 38" enable-background="new 0 0 48.1 38" xml:space="preserve">
<g>
	<defs>
		<rect id="SVGID_1_" width="48.1" height="38"/>
	</defs>
	<clipPath id="SVGID_2_">
		<use xlink:href="#SVGID_1_"  overflow="visible"/>
	</clipPath>
	<path clip-path="url(#SVGID_2_)" fill="#303033" d="M43.7,18.3c0.2-0.7,0.3-1.5,0.3-2.3c0-5-4-9-9-9c-1.2,0-2.4,0.2-3.5,0.7
		C30.1,3.2,25.9,0,21,0c-6.1,0-11,4.9-11,11c0,0.4,0,0.7,0.1,1.1C9.7,12,9.4,12,9,12c-5,0-9,4-9,9s4,9,9,9h4v-2H9c-3.9,0-7-3.1-7-7
		c0-3.9,3.1-7,7-7c0.7,0,1.3,0.1,2,0.3l1.7,0.5l-0.4-1.7C12.1,12.4,12,11.7,12,11c0-5,4-9,9-9c4.3,0,8.1,3.1,8.8,7.4l0.3,1.4
		l1.2-0.8C32.4,9.3,33.7,9,34.9,9c3.899,0,7,3.1,7,7c0,0.9-0.2,1.8-0.5,2.7L41,19.9l1.4,0.1c2.1,0.2,3.699,1.9,3.699,4
		c0,2.2-1.8,4-4,4h-7v2h7c3.301,0,6-2.7,6-6C48,21.3,46.2,19,43.7,18.3"/>
	<path clip-path="url(#SVGID_2_)" fill="#303033" d="M30,20H18c-1.7,0-3,1.3-3,3v12c0,1.7,1.3,3,3,3h12c1.7,0,3-1.3,3-3V23
		C33,21.3,31.7,20,30,20 M31,35c0,0.6-0.4,1-1,1H18c-0.6,0-1-0.4-1-1V23c0-0.6,0.4-1,1-1h12c0.6,0,1,0.4,1,1V35z"/>
	<rect x="19" y="24" clip-path="url(#SVGID_2_)" fill="#303033" width="10" height="2"/>
	<rect x="19" y="28" clip-path="url(#SVGID_2_)" fill="#303033" width="10" height="2"/>
	<rect x="19" y="32" clip-path="url(#SVGID_2_)" fill="#303033" width="10" height="2"/>
	<path clip-path="url(#SVGID_2_)" fill="#7D50F9" d="M14,11c0-3.9,3.1-7,7-7v7H14z"/>
</g>
</svg>
